%YAML 1.1
%TAG !u! tag:unity3d.com,2011:
--- !u!114 &11400000
MonoBehaviour:
  m_ObjectHideFlags: 0
  m_CorrespondingSourceObject: {fileID: 0}
  m_PrefabInstance: {fileID: 0}
  m_PrefabAsset: {fileID: 0}
  m_GameObject: {fileID: 0}
  m_Enabled: 1
  m_EditorHideFlags: 0
  m_Script: {fileID: 11500000, guid: c766dc6c9acf0b145800551e01b0a556, type: 3}
  m_Name: BoothDataLoader
  m_EditorClassIdentifier: 
  sheetAddress: 15S1-KNFnvopFPUBZg960BhQbMcodTwL-FROWFWmlTc8
  sheetName: Default
  sheetName2: Link
  sheetName3: BoothTexture
  firstLoadStartCell: A1
  firstLoadEndCell: Q400
  secondLoadStartCell: A1
  secondLoadEndCell: D500
  thirdLoadStartCell: A1
  thirdLoadEndCell: D1500
  boothDataFolder: {fileID: 102900000, guid: c06dcbe4a9611b348981de1cabeef2b0, type: 3}
  logoTextureFolder: {fileID: 102900000, guid: aab6ea9319d98af4ab47fc9841fa8a8d, type: 3}
  productTextureFolder: {fileID: 102900000, guid: 9e99cb6adbe2a364492628c342566b5d, type: 3}
  thumbnailTextureFolder: {fileID: 102900000, guid: a6fc326465b9fe04d80d0c6d0433dcff, type: 3}
  companyBoothDatasNames:
  - 1
  - 2
  - 3
  - 4
  - 5
  - 6
  - 7
  - 8
  - 9
  - 10
  - 11
  - 12
  - 13
  - 14
  - 15
  - 16
  - 17
  - 18
  - 19
  - 20
  - 21
  - 22
  - 23
  - 24
  - 25
  - 26
  - 27
  - 28
  - 29
  - 30
  - 31
  - 32
  - 33
  - 34
  - 35
  - 36
  - 37
  - 38
  - 39
  - 40
  - 41
  - 42
  - 43
  - 44
  - 45
  - 46
  - 47
  - 48
  - 49
  - 50
  - 51
  - 52
  - 53
  - 54
  - 55
  - 56
  - 57
  - 58
  - 59
  - 60
  - 61
  - 62
  - 63
  - 64
  - 65
  - 66
  - 67
  - 68
  - 69
  - 70
  - 71
  - 72
  - 73
  - 74
  - 75
  - 76
  - 77
  - 78
  - 79
  - 80
  - 81
  - 82
  - 83
  - 84
  - 85
  - 86
  - 87
  - 88
  - 89
  - 90
  - 91
  - 92
  - 93
  - 94
  - 95
  - 96
  - 97
  - 98
  - 99
  - 100
  - 101
  - 102
  - 103
  - 104
  - 105
  - 106
  - 107
  - 108
  - 109
  - 110
  - 111
  - 112
  - 113
  - 114
  - 115
  - 116
  - 117
  - 118
  - 119
  - 120
  - 121
  - 122
  - 123
  - 124
  - 125
  - 126
  - 127
  - 128
  - 129
  - 130
  - 131
  - 132
  - 133
  - 134
  - 135
  - 136
  - 137
  - 138
  - 139
  - 140
  - 141
  - 142
  - 143
  - 144
  - 145
  - 146
  - 147
  - 148
  - 149
  - 150
  - 151
  - 152
  - 153
  - 154
  - 155
  - 156
  - 157
  - 158
  - 159
  - 160
  - 161
  - 162
  - 163
  - 164
  - 165
  - 166
  - 167
  - 168
  - 169
  - 170
  - 171
  - 172
  - 173
  - 174
  - 175
  - 176
  - 177
  - 178
  - 179
  - 180
  - 181
  - 182
  - 183
  - 184
  - 185
  - 186
  - 187
  - 188
  - 189
  - 190
  - 191
  - 192
  - 193
  - 194
  - 195
  - 196
  - 197
  - 198
  - 199
  - 200
  - 201
  - 202
  - 203
  - 204
  - 205
  - 206
  - 207
  - 208
  - 209
  - 210
  - 211
  - 212
  - 213
  - 214
  - 215
  - 216
  - 217
  - 218
  - 219
  - 220
  - 221
  - 222
  - 223
  - 224
  - 225
  - 226
  - 227
  - 228
  - 229
  - 230
  - 231
  - 232
  - 233
  - 234
  - 235
  - 236
  - 237
  - 238
  - 239
  - 240
  - 241
  - 242
  - 243
  - 244
  - 245
  - 246
  - 247
  - 248
  - 249
  - 250
  - 251
  - 252
  - 253
  - 254
  - 255
  - 256
  - 257
  - 258
  - 259
  - 260
  - 261
  - 262
  - 263
  - 264
  - 265
  - 266
  - 267
  - 268
  - 269
  - 270
  - 271
  - 272
  - 273
  - 274
  - 275
  - 276
  - 277
  - 278
  - 279
  - 280
  - 281
  - 282
  - 283
  - 284
  - 285
  - 286
  - 287
  - 288
  - 289
  - 290
  - 291
  - 292
  - 293
  - 294
  - 295
  - 296
  - 297
  - 298
  companyBoothDatas:
  - {fileID: 11400000, guid: 3c24493acfbbe984bbae7c96099a4a73, type: 2}
  - {fileID: 11400000, guid: d6cf23600139ae04e8e309605b82f280, type: 2}
  - {fileID: 11400000, guid: ec1da97db75b53142a6bffeb8ac87723, type: 2}
  - {fileID: 11400000, guid: 217168a06ac508547b76460ce4329961, type: 2}
  - {fileID: 11400000, guid: d45dd2c62ca3d674aa27c2a10feda426, type: 2}
  - {fileID: 11400000, guid: bc11fad8ce8f792498305f3b73855f8d, type: 2}
  - {fileID: 11400000, guid: f940bbf487454e84a8c9f97cd54ce200, type: 2}
  - {fileID: 11400000, guid: 98d59ae6d0dbdb84cbe58b48911f3c5b, type: 2}
  - {fileID: 11400000, guid: c08bc8b7862e5e742bdbd578216bf0ed, type: 2}
  - {fileID: 11400000, guid: 9e1a73ead73544a40969f0ffe28ac007, type: 2}
  - {fileID: 11400000, guid: 59792a08585af6c4ab511d9c07e8e26e, type: 2}
  - {fileID: 11400000, guid: cb67e702b09090d45a64ed83ead60d56, type: 2}
  - {fileID: 11400000, guid: df28f2aea13b1c6409b8c815651ef868, type: 2}
  - {fileID: 11400000, guid: a42950db70bde454bad97e6c3c575eb4, type: 2}
  - {fileID: 11400000, guid: 0b4c388f8b5233e41ad1aa91279517d0, type: 2}
  - {fileID: 11400000, guid: 9d4057c36ab24824c8f45f9a1852837f, type: 2}
  - {fileID: 11400000, guid: c8ab43e03dd6adb4a8e57c7d83f5001e, type: 2}
  - {fileID: 11400000, guid: 083a80c7d562146458a135f3229585b6, type: 2}
  - {fileID: 11400000, guid: 1e06e0463d5687e4384c300d6ad027bf, type: 2}
  - {fileID: 11400000, guid: 30752af19d6fbaa438b67c5ac819800d, type: 2}
  - {fileID: 11400000, guid: b5d16561b28212c40927422881f05c48, type: 2}
  - {fileID: 11400000, guid: 375ede3de21bc05449c4cfa206b7d677, type: 2}
  - {fileID: 11400000, guid: 0feaf67a82e078646861644b3047395b, type: 2}
  - {fileID: 11400000, guid: a57705422fa7e45439149da0f604aeb4, type: 2}
  - {fileID: 11400000, guid: 2d933726072fb5c4d97e9523794c6f57, type: 2}
  - {fileID: 11400000, guid: aeaf27964da55e04ca114ceca810e971, type: 2}
  - {fileID: 11400000, guid: 9bd85bdba0121e843a19493b2120b6d8, type: 2}
  - {fileID: 11400000, guid: 734d77f216841ce47a2ffce20db766d3, type: 2}
  - {fileID: 11400000, guid: 0f322b27ba0b1344994c0348c86e4c27, type: 2}
  - {fileID: 11400000, guid: 141ecc69ae619384eb339efd465387b6, type: 2}
  - {fileID: 11400000, guid: d91e118067690d94fbbb8e4d72d17888, type: 2}
  - {fileID: 11400000, guid: f3075b7a36c34cf4bac398208d37f284, type: 2}
  - {fileID: 11400000, guid: d7912e49b23046f4b9be6159ee0a00c5, type: 2}
  - {fileID: 11400000, guid: 913887b402349a34ab18357df8a4b48d, type: 2}
  - {fileID: 11400000, guid: 25b4e0d202053ec4cab6dbe85f267469, type: 2}
  - {fileID: 11400000, guid: 2288f25e16a3dee479146313bf6aec1a, type: 2}
  - {fileID: 11400000, guid: 5f1d7c659a8fcda42a845f916e8be4be, type: 2}
  - {fileID: 11400000, guid: 2bed8e5516af37e47a66ba997fdb1645, type: 2}
  - {fileID: 11400000, guid: 494ec670b017ce94eb48654b6305f93c, type: 2}
  - {fileID: 11400000, guid: 9c4abbafb68905746982069d81ce820e, type: 2}
  - {fileID: 11400000, guid: 326b4e8c069ab6e45b1b7e96de833c11, type: 2}
  - {fileID: 11400000, guid: c4470cfcfd3cfc24f8f4febe3ab23dc4, type: 2}
  - {fileID: 11400000, guid: 0d1afc1776066954d8deac9b790b535d, type: 2}
  - {fileID: 11400000, guid: 25141b1f3a888554289785a4abddf729, type: 2}
  - {fileID: 11400000, guid: 14fa9ac5375303c47bd852bbab70491a, type: 2}
  - {fileID: 11400000, guid: e5837993f221cb24b82a26eb1dea1a87, type: 2}
  - {fileID: 11400000, guid: 219043afa6691634885f6ff31bba812a, type: 2}
  - {fileID: 11400000, guid: c69c23505093a1743bc4610592ac6748, type: 2}
  - {fileID: 11400000, guid: 2ce6e83a5d0f8074a8bcd60677294592, type: 2}
  - {fileID: 11400000, guid: 3a6a02b12cc38064c9d2ac8be33bba8e, type: 2}
  - {fileID: 11400000, guid: 211d69c0d9bb7e6439a38c55f742a6a3, type: 2}
  - {fileID: 11400000, guid: 406eb378a4cf13f4f807d480f5e78f9d, type: 2}
  - {fileID: 11400000, guid: 65c45e9e240e84146a247aeffb7e5f71, type: 2}
  - {fileID: 11400000, guid: 3dccaf22393db7a4898a46156e7c47f0, type: 2}
  - {fileID: 11400000, guid: 2da1ce9cd76c50742af86a3b72e32b09, type: 2}
  - {fileID: 11400000, guid: f13f7b9046c2f244dac5074296dd3cf9, type: 2}
  - {fileID: 11400000, guid: 6bd39c7daf23b5c4ca87fd0ee5da0d7e, type: 2}
  - {fileID: 11400000, guid: 7a8d835e3d7db0943ae73da40fc7aae5, type: 2}
  - {fileID: 11400000, guid: a36c9112b32086145bb4af048f4b5a5e, type: 2}
  - {fileID: 11400000, guid: 809490d7e4aa1b545909d7019119ebe1, type: 2}
  - {fileID: 11400000, guid: c78d895a404131d4aae5f2c70bcc8b36, type: 2}
  - {fileID: 11400000, guid: 6614027f89a5a324ea4dc8acffe563cb, type: 2}
  - {fileID: 11400000, guid: 3dad2c0ebe5f4854596299be76f77c83, type: 2}
  - {fileID: 11400000, guid: e7d06aa641b5076478a1f74535759376, type: 2}
  - {fileID: 11400000, guid: 63a6b1dd0070c4645bb460d52219593b, type: 2}
  - {fileID: 11400000, guid: 8329e621cc8e61a41974123af86ec5a8, type: 2}
  - {fileID: 11400000, guid: 5083601e31f28024985da16bf240654c, type: 2}
  - {fileID: 11400000, guid: 7084ce20c0f71a743851b5f40fe24fdc, type: 2}
  - {fileID: 11400000, guid: e91c6ec6d5edbfd49b11e35402d8f7b3, type: 2}
  - {fileID: 11400000, guid: 1266173ab6542984d84d69055489d696, type: 2}
  - {fileID: 11400000, guid: b179e1a5ba6310e49afef5e197f7b4ca, type: 2}
  - {fileID: 11400000, guid: c8bdf97ae0cf7234cabd364a30878083, type: 2}
  - {fileID: 11400000, guid: 23286dcefacbfa5439d2484ae1bd0021, type: 2}
  - {fileID: 11400000, guid: b13e1c49cee19df46ae3193b6f37707d, type: 2}
  - {fileID: 11400000, guid: 42a3ebdcb97a9494e877c88adcafc35a, type: 2}
  - {fileID: 11400000, guid: 9ca485da3d21c7b4d9e1e01eee1c54ab, type: 2}
  - {fileID: 11400000, guid: 17e73a61c0f24874b9aa9933dfa99a67, type: 2}
  - {fileID: 11400000, guid: e08c489789f1f6441b6c6f952c2494d3, type: 2}
  - {fileID: 11400000, guid: 8f68445fe5b961b448b3f25677dadd40, type: 2}
  - {fileID: 11400000, guid: 4d08bf420fe50924db9c618e11b927d5, type: 2}
  - {fileID: 11400000, guid: 9f6484b9a8d8aa64ba56edc29c948a40, type: 2}
  - {fileID: 11400000, guid: bed6246d30007a74a98381d7b157e992, type: 2}
  - {fileID: 11400000, guid: a9388742cbaf4d747b434a4bcb6e9652, type: 2}
  - {fileID: 11400000, guid: 3f3e5261fd486e140b24b7ce5b8e3765, type: 2}
  - {fileID: 11400000, guid: fd595d28628ed6d4293678ae8829c768, type: 2}
  - {fileID: 11400000, guid: 6be57c6940d0ade4398cb3739003e208, type: 2}
  - {fileID: 11400000, guid: bfc0afbf455bf3c4eaca77c46affff61, type: 2}
  - {fileID: 11400000, guid: 93adef88f456da9419c915f373fd79f4, type: 2}
  - {fileID: 11400000, guid: 8207d768df26b5749a8546db252c7392, type: 2}
  - {fileID: 11400000, guid: ea8e7e6ab1c187346bea908fc6422d11, type: 2}
  - {fileID: 11400000, guid: fa8bd73bd4437514c981ffab3115f09a, type: 2}
  - {fileID: 11400000, guid: 033bcca33ac850542949581f64da1e0c, type: 2}
  - {fileID: 11400000, guid: c722178b2a9515f4a974cf7c8da32b79, type: 2}
  - {fileID: 11400000, guid: 4ceb30d235ceeeb4ba602e7c9c4a0b80, type: 2}
  - {fileID: 11400000, guid: cf24538d83a13624da8298d04d2802fe, type: 2}
  - {fileID: 11400000, guid: 798050e0c2731484a85673bf644fae53, type: 2}
  - {fileID: 11400000, guid: 706965c3468ba6140a966f3c79c24b4c, type: 2}
  - {fileID: 11400000, guid: 9a2c7e1f659fb2b4bb7207d593a3fc90, type: 2}
  - {fileID: 11400000, guid: 51aa82b90a11c804b8c350278d8eee73, type: 2}
  - {fileID: 11400000, guid: 523e3e1e38ea1fe4abe7c691dc3cd3d7, type: 2}
  - {fileID: 11400000, guid: d6306ed1c430a034a8a3e9071cbb36b4, type: 2}
  - {fileID: 11400000, guid: 6fb46ed90bad3c148b2e67f88bd5ae4b, type: 2}
  - {fileID: 11400000, guid: f8c83c15e668ecd48b098fa31241ca01, type: 2}
  - {fileID: 11400000, guid: 843e40e5174ad1045af665f5a1678290, type: 2}
  - {fileID: 11400000, guid: b06b7cad6d034cc4c9fe0d82b5b90453, type: 2}
  - {fileID: 11400000, guid: 0a3e1e00d637c29459bde290025bfc8e, type: 2}
  - {fileID: 11400000, guid: 5585ffeba2a33be49b00c486666d597c, type: 2}
  - {fileID: 11400000, guid: b52a54988e18f6c4e9dc4cc09296a1fd, type: 2}
  - {fileID: 11400000, guid: ea9f511e242724f4086cd29225f09bbe, type: 2}
  - {fileID: 11400000, guid: 7dd6f56f940b20b4ebd73329bbcd94cb, type: 2}
  - {fileID: 11400000, guid: 42b155ad784d26748857a86f0ec22a3c, type: 2}
  - {fileID: 11400000, guid: d5dad18aea357d94e8eba93d1996dfd6, type: 2}
  - {fileID: 11400000, guid: f1e7bd89ef51ac445a5e2c73c1934a96, type: 2}
  - {fileID: 11400000, guid: 1c36217deb890f445b74739e258bd622, type: 2}
  - {fileID: 11400000, guid: 623b619070497a448b00611f9a449ff4, type: 2}
  - {fileID: 11400000, guid: 611c98f4371102a42b591fe9f685422e, type: 2}
  - {fileID: 11400000, guid: 484a20263b7d145448ee38cf4062699b, type: 2}
  - {fileID: 11400000, guid: cc7188303503b274a9ae9d2ae398cc88, type: 2}
  - {fileID: 11400000, guid: 209aa54d800b2f9439569b374019c24e, type: 2}
  - {fileID: 11400000, guid: 0b68e25ac5ee17542bbd18bb06ccd407, type: 2}
  - {fileID: 11400000, guid: 57056a5979672fa43871dae9eaa1890a, type: 2}
  - {fileID: 11400000, guid: 3148cea7bf01a4f4cb2b1058cea7b219, type: 2}
  - {fileID: 11400000, guid: ee0102b376a422442822ab8bef8eefa0, type: 2}
  - {fileID: 11400000, guid: d97c75706ae08d74092eb7ce45eefba6, type: 2}
  - {fileID: 11400000, guid: afb667195a7a01041a01b3868f9706a2, type: 2}
  - {fileID: 11400000, guid: f942c19e695af15489e7e17a65081f27, type: 2}
  - {fileID: 11400000, guid: 1f5f11f88ad372f4692a04ddd29b1a8a, type: 2}
  - {fileID: 11400000, guid: aa83cdaf29ba4444a94abf0d7136a481, type: 2}
  - {fileID: 11400000, guid: d73baae39c8c5f94e9b46cce2031baf9, type: 2}
  - {fileID: 11400000, guid: 7b04e855dc6329444aa4ef9d010e9bdb, type: 2}
  - {fileID: 11400000, guid: f584501399250764ca6e13252ab33d4b, type: 2}
  - {fileID: 11400000, guid: 6020d4b4f2e287e46911e18601a21f69, type: 2}
  - {fileID: 11400000, guid: 0d79109af630df14c8b647194713a9c3, type: 2}
  - {fileID: 11400000, guid: e052c68505633d446972269cc1420843, type: 2}
  - {fileID: 11400000, guid: df6b49ad476121d43abd5e7d0e4587c9, type: 2}
  - {fileID: 11400000, guid: 9555d5ff077d0a643acbf0a1beb339a3, type: 2}
  - {fileID: 11400000, guid: 86a36d0fb95837d4aad9c4ef070e951b, type: 2}
  - {fileID: 11400000, guid: 86be33fc30e51604894736aaf965c434, type: 2}
  - {fileID: 11400000, guid: d11726c67b96cff439a68a956cfcabfd, type: 2}
  - {fileID: 11400000, guid: fa0150d63bb40c8449896f25643580e7, type: 2}
  - {fileID: 11400000, guid: 8b622fdbfcd188940b50dd3d300a4862, type: 2}
  - {fileID: 11400000, guid: 0cce14c75799cd743be6c25ed9963ba9, type: 2}
  - {fileID: 11400000, guid: 0faaa8bce4fcd0041ab4b6fbe407406e, type: 2}
  - {fileID: 11400000, guid: 7fa2453960a615947a81d163d9046bdf, type: 2}
  - {fileID: 11400000, guid: 13e4ec5948e2de240ad589399ef97788, type: 2}
  - {fileID: 11400000, guid: aab4d1a25a86a4c409dfe6c278c28631, type: 2}
  - {fileID: 11400000, guid: a2c5fb9f22c2d1942a20b1483bf1ebeb, type: 2}
  - {fileID: 11400000, guid: 48e227abecbb92c4a81911a404f16b14, type: 2}
  - {fileID: 11400000, guid: 2ec92cb3f37227d4882ac1d4e874e5e3, type: 2}
  - {fileID: 11400000, guid: cf22f8c460469e948a091792b559c1da, type: 2}
  - {fileID: 11400000, guid: f5c8a8f2d0036de44969d784204aeb0f, type: 2}
  - {fileID: 11400000, guid: f43dc6691d942194f8beab6f2ca6ecd7, type: 2}
  - {fileID: 11400000, guid: 31878b2e0e443a845b4e9bfb86be2139, type: 2}
  - {fileID: 11400000, guid: 8bb204dd4c67e54438fa6c23844bc7bd, type: 2}
  - {fileID: 11400000, guid: fa3e5c110feed3043a6885554304e723, type: 2}
  - {fileID: 11400000, guid: 302fa260550bf9f42ba0faf1c3fd93df, type: 2}
  - {fileID: 11400000, guid: 283c639ce9dc2064fac4a183a8df87bc, type: 2}
  - {fileID: 11400000, guid: 49173e79fc73c7249a5126abfe2c9cd6, type: 2}
  - {fileID: 11400000, guid: 426ba56adaa58644485d1e6ee178cc33, type: 2}
  - {fileID: 11400000, guid: ef0cdcf729dde934bb60f22db665b46a, type: 2}
  - {fileID: 11400000, guid: 4b5980798a965204588f29dd342c0e1c, type: 2}
  - {fileID: 11400000, guid: 0d8dd970f4e3f1e44a99966d832ea363, type: 2}
  - {fileID: 11400000, guid: 943a33eff3c433f43afb823d58162d9d, type: 2}
  - {fileID: 11400000, guid: 412938859d0ffff4a8d6ceea139f46d8, type: 2}
  - {fileID: 11400000, guid: 551b020ad2df5b847980b2ce2b537930, type: 2}
  - {fileID: 11400000, guid: c38472f03cfab0e478b47252c0a3d45e, type: 2}
  - {fileID: 11400000, guid: 7b6765675dd130941bd59b9836dc0cbc, type: 2}
  - {fileID: 11400000, guid: 46ce7590d5ab735489e18779188c8f3a, type: 2}
  - {fileID: 11400000, guid: b617348cfb387664aabfe07ee73a7795, type: 2}
  - {fileID: 11400000, guid: bed8ab7f4397add4f885222795b7c21c, type: 2}
  - {fileID: 11400000, guid: 92f6d75645347b14eb2f5219018218cb, type: 2}
  - {fileID: 11400000, guid: b020e53cb78cdd346a33b3c8f043b79a, type: 2}
  - {fileID: 11400000, guid: 7d5878247d54cf34fbb8020494252b99, type: 2}
  - {fileID: 11400000, guid: 6119c0fdeb32d1f46aaadc474190e5e2, type: 2}
  - {fileID: 11400000, guid: 922bc7ec6fc437c42bbc81e9f715a5eb, type: 2}
  - {fileID: 11400000, guid: d56fa4c9ff791e241a3f35775fdbb9d9, type: 2}
  - {fileID: 11400000, guid: 0e4f5f91064052649b3138debe822dce, type: 2}
  - {fileID: 11400000, guid: a34ecc7de0a3b82408c54a4a002c9aaa, type: 2}
  - {fileID: 11400000, guid: 17bd3c3458b367d48af60ac02adfe288, type: 2}
  - {fileID: 11400000, guid: 74ec4acbf9bbd4e4082ef4a506bc3af3, type: 2}
  - {fileID: 11400000, guid: 4d48c09a8d55e35498a92ac9790c6102, type: 2}
  - {fileID: 11400000, guid: bab77a1772fe1614e85478d7181b8520, type: 2}
  - {fileID: 11400000, guid: f823436437fb9b549b4de3d13a90f318, type: 2}
  - {fileID: 11400000, guid: dd85ba3e91e6c7e47b661de62c82026d, type: 2}
  - {fileID: 11400000, guid: fb270905b3494fe46bddbcaec319afc6, type: 2}
  - {fileID: 11400000, guid: dfb799ca489ed6b4e90efd8e296d792d, type: 2}
  - {fileID: 11400000, guid: c2ffd243f28528241ab34d4265810dd7, type: 2}
  - {fileID: 11400000, guid: 630b52545c695054f8dfce73203aaf12, type: 2}
  - {fileID: 11400000, guid: d739a5f6854a7674eb1632589914541c, type: 2}
  - {fileID: 11400000, guid: 40a609c9e91ab764ab5e619e3fc0975d, type: 2}
  - {fileID: 11400000, guid: b2e9284fb7492844883653f5df886973, type: 2}
  - {fileID: 11400000, guid: 296e43ea24ae6e84e9a48c78dd418f36, type: 2}
  - {fileID: 11400000, guid: 8d515b31fe26cb5429aff940f3084715, type: 2}
  - {fileID: 11400000, guid: ac098d16e2457774992ff6ae78a94453, type: 2}
  - {fileID: 11400000, guid: 31255f9dcdca0114fbd453bfb4363c6c, type: 2}
  - {fileID: 11400000, guid: b4b64e0bc3f2974498edd9b04c358610, type: 2}
  - {fileID: 11400000, guid: 6a0a1577c11b722449f3a487432f379a, type: 2}
  - {fileID: 11400000, guid: d3db01bf6b2b1a04eb5a635aac4984ac, type: 2}
  - {fileID: 11400000, guid: 520c48388389cac4db39012d8779bccd, type: 2}
  - {fileID: 11400000, guid: ef880f8a4c0fabb4ba43994d6ecbfa70, type: 2}
  - {fileID: 11400000, guid: 5f9bfad9804564647a33029ce7578bcd, type: 2}
  - {fileID: 11400000, guid: cb3365b9aa7a6874f8aa3f10060b6886, type: 2}
  - {fileID: 11400000, guid: 7a121cb12c9edce4188bc9d18cd0be31, type: 2}
  - {fileID: 11400000, guid: 24a143ae4807f7240816bd89a9ebcd19, type: 2}
  - {fileID: 11400000, guid: 86091ef5d96c41444a473d2f05b5b54c, type: 2}
  - {fileID: 11400000, guid: 8f090503d0ea25f4eb4427ea2020c5ee, type: 2}
  - {fileID: 11400000, guid: e1cc48a9b5ced664db668a0f8245450e, type: 2}
  - {fileID: 11400000, guid: 92e492a07c0d24a419482a9b5bfc10a4, type: 2}
  - {fileID: 11400000, guid: 63d178e4147b07c4192e1e00ceb78d73, type: 2}
  - {fileID: 11400000, guid: 4b179c8d14b493a47a5cda2c64ef93e2, type: 2}
  - {fileID: 11400000, guid: 37737591e1a47e84497ddc94dc7729b2, type: 2}
  - {fileID: 11400000, guid: 78eec76c10e3aad4bbfb789d101c17f2, type: 2}
  - {fileID: 11400000, guid: 08119e3f488dc0840bfc8e6791a7eb58, type: 2}
  - {fileID: 11400000, guid: 27a15c187240f184a813226d93a15a3a, type: 2}
  - {fileID: 11400000, guid: 1a2a3214ad5432a4e8530ea4c3a8fbbc, type: 2}
  - {fileID: 11400000, guid: 4c3307edcffa0ee40b17da2727402bbf, type: 2}
  - {fileID: 11400000, guid: 16792b1baa832d14d8918714bea08af2, type: 2}
  - {fileID: 11400000, guid: df8633474006b444f8a5905c7f360eb5, type: 2}
  - {fileID: 11400000, guid: 0cf9afe352f840f40b39b6e32b382cd0, type: 2}
  - {fileID: 11400000, guid: c345879eafb44304488c7ad51f9afc50, type: 2}
  - {fileID: 11400000, guid: abf383e5d80ad984f9fa18a5d1ad9946, type: 2}
  - {fileID: 11400000, guid: ff72c910b0dfc58498fa46af9a7b9602, type: 2}
  - {fileID: 11400000, guid: 46130dd7d4a17db438d07fe5f67872ea, type: 2}
  - {fileID: 11400000, guid: ea48ed5f4ddfb8746ac18804983d61d4, type: 2}
  - {fileID: 11400000, guid: 14ac83d9402786240b0dc96c8f232ba1, type: 2}
  - {fileID: 11400000, guid: e61e61578570ad14f921e38cba618a80, type: 2}
  - {fileID: 11400000, guid: 08fe7290c74668f479c1da40c2ca3ea8, type: 2}
  - {fileID: 11400000, guid: 6d5ee2e818fe71443bc4e2fcec454c11, type: 2}
  - {fileID: 11400000, guid: e387297243eafe941ab0d841a511a373, type: 2}
  - {fileID: 11400000, guid: d1727dec985af0c4cb7d63f45c1b6441, type: 2}
  - {fileID: 11400000, guid: b979d2e682f82e94784b9ad65613862d, type: 2}
  - {fileID: 11400000, guid: 1955462fe770603468ceb799e72e2b70, type: 2}
  - {fileID: 11400000, guid: 7a1cacd0ece555847a746805e024a6b2, type: 2}
  - {fileID: 11400000, guid: cf5f9c4d5de672c448246e8f3036c1b7, type: 2}
  - {fileID: 11400000, guid: e657598dc36caf1449065623a5134e4d, type: 2}
  - {fileID: 11400000, guid: 7c536ce706c12c143855bc2fe530127a, type: 2}
  - {fileID: 11400000, guid: 5a7b5fca92a9155478b0f875aa35d362, type: 2}
  - {fileID: 11400000, guid: 4b11ae78af8e0ae4d9290c3c3e5a3b7e, type: 2}
  - {fileID: 11400000, guid: 9765cb1e883ecee4a8538eceb51958cc, type: 2}
  - {fileID: 11400000, guid: 18ef72c95b8b7b44d90d4523f7bcdb69, type: 2}
  - {fileID: 11400000, guid: 683c5f866b0c36248969fce6c0f502f8, type: 2}
  - {fileID: 11400000, guid: 90c1fd1251463574a861b3c812ef13cb, type: 2}
  - {fileID: 11400000, guid: 7b46a4d0f6ac0db4b8ff09b152bef510, type: 2}
  - {fileID: 11400000, guid: 3f5cec27acc8e4248a82cf7f94721404, type: 2}
  - {fileID: 11400000, guid: c587580959835134794bc3111862e265, type: 2}
  - {fileID: 11400000, guid: cd05ca3fcb9da194a9ee75313c0aef06, type: 2}
  - {fileID: 11400000, guid: 891e6bae0ef60a14b896af0e8810f3ff, type: 2}
  - {fileID: 11400000, guid: f6a628324df501a449bb8523b01bf1d9, type: 2}
  - {fileID: 11400000, guid: beaa46c376ac090409630533014729d8, type: 2}
  - {fileID: 11400000, guid: 6c91173c193e66b468a45a12eff1510d, type: 2}
  - {fileID: 11400000, guid: b916c90a3c4a85f478f92f579b7e7679, type: 2}
  - {fileID: 11400000, guid: f081675c50ae7d14f95cc5f003118cf5, type: 2}
  - {fileID: 11400000, guid: fbc86e0624c69644c9faca026327899d, type: 2}
  - {fileID: 11400000, guid: a7bd339182425dc4fb53e643a39eabc4, type: 2}
  - {fileID: 11400000, guid: b7774bfef09cd6f4891c1ad902090eba, type: 2}
  - {fileID: 11400000, guid: af9cfc356485ba34d85c96431a9d9cfd, type: 2}
  - {fileID: 11400000, guid: 39925181278472441b03a43889e28c60, type: 2}
  - {fileID: 11400000, guid: d5e0a3bb9a82a854e8c1349831a9f324, type: 2}
  - {fileID: 11400000, guid: de9b6f4e45916d441ae84dc74403fff6, type: 2}
  - {fileID: 11400000, guid: 4300b70d4ecd3e649be6e1746d12e185, type: 2}
  - {fileID: 11400000, guid: 89c75eca289baa54c9248539bb0a49c0, type: 2}
  - {fileID: 11400000, guid: caef6e0e89971b94d92d0a2a51d67a9b, type: 2}
  - {fileID: 11400000, guid: 89f843157ecc9774caa918317db3ef05, type: 2}
  - {fileID: 11400000, guid: 874fdfe5f3d9a3948b890b4d77ad99ef, type: 2}
  - {fileID: 11400000, guid: 05f1283f7edd8854f9804fc5362395e1, type: 2}
  - {fileID: 11400000, guid: 045a36d206b4ab7479378c86be1d6b33, type: 2}
  - {fileID: 11400000, guid: 188b084c3a8e2a84191735a0c375604d, type: 2}
  - {fileID: 11400000, guid: ab1d94038c10ef04681765e8016d8bbf, type: 2}
  - {fileID: 11400000, guid: 3b1152883eb182f46ae9f63c33059222, type: 2}
  - {fileID: 11400000, guid: d264729f3c51dc3409e98c08a46c5ec4, type: 2}
  - {fileID: 11400000, guid: e3490f24206a2ed47969011adcf18680, type: 2}
  - {fileID: 11400000, guid: 9658aa7703ffa0d489a2c488ae7f9209, type: 2}
  - {fileID: 11400000, guid: 4891157b575bbb14f902cc7319c1acc5, type: 2}
  - {fileID: 11400000, guid: dfd823bcdd840384fb6b3a1ca1c57c15, type: 2}
  - {fileID: 11400000, guid: 1dadfcebf96636f46b81bdbd0f35395e, type: 2}
  - {fileID: 11400000, guid: b69780c6acc60ea44bb3213d4145b392, type: 2}
  - {fileID: 11400000, guid: 9ac8778237d05124585494f08b7d80ce, type: 2}
  - {fileID: 11400000, guid: 6003d3a5f2665e340bca9e71e3d81ab5, type: 2}
  - {fileID: 11400000, guid: 5f0a6bef86b4f9c458bc1dcf72a645b9, type: 2}
  - {fileID: 11400000, guid: 9356cc88c2b4d2b4087c6d939d4747d9, type: 2}
  - {fileID: 11400000, guid: a9be4286c566306418e4d160522e2571, type: 2}
  - {fileID: 11400000, guid: adafd79765f6808408a77ba791ec720c, type: 2}
  - {fileID: 11400000, guid: 202e3fd4e3598384d8979e30ab7e3a8e, type: 2}
  - {fileID: 11400000, guid: 500339504d82d7646a642289ae6562c2, type: 2}
  - {fileID: 11400000, guid: 7f47737f5e8c6b746bef46f8111389d3, type: 2}
  - {fileID: 11400000, guid: 87da0b2091bf2d847a5d301021e71267, type: 2}
  - {fileID: 11400000, guid: d80921903031098468cb7e856766363a, type: 2}
  - {fileID: 11400000, guid: 0e3b16a03d7436f4b9a6d7a925d54011, type: 2}
  - {fileID: 11400000, guid: c688a26a521442d44a8b6246c2d6d547, type: 2}
  - {fileID: 11400000, guid: da275828fdd267c4c9c385e06e64d47f, type: 2}
  - {fileID: 11400000, guid: fa5ef7885db286045b6eabd207135f32, type: 2}
  - {fileID: 11400000, guid: 4ba5628cf4bd7344295b059f1fc69aa8, type: 2}
  - {fileID: 11400000, guid: 63b78fe3a14c1f248bcecba920b0ae2a, type: 2}
  - {fileID: 11400000, guid: 23ae1493051926e48a8e3abbfc2f2bce, type: 2}
  - {fileID: 11400000, guid: 10ef426cc3616dc438f5042c774a030d, type: 2}
  - {fileID: 11400000, guid: a21d8e7548991e6419cfbcdf7144a35a, type: 2}
  - {fileID: 11400000, guid: 9a922fc123d611a4b9d30d74d840d046, type: 2}
  - {fileID: 11400000, guid: ed7aafafcb647984eb62573d26cdd95d, type: 2}
  boothDathFolderPath: Assets/ScriptableObject/Booth
  logoTextureFolderPath: Assets/Image/UI/Ui_CI
  productTextureFolderPath: Assets/Image/UI/Ui_RawImage
  thumbnailTextureFolderPath: Assets/Image/Test/Thumbnail
